Reproducible_Research_Assess1
…
Calculate and report the mean and median total number of steps taken per day

avg_steps <- activity %>% 
    group_by(date) %>% 
    summarise(avg_steps = mean(steps, na.rm=TRUE)) 

# Print average number of steps per day
avg_steps

## # A tibble: 61 x 2
##    date       avg_steps
##    <date>         <dbl>
##  1 2012-10-01   NaN    
##  2 2012-10-02     0.438
##  3 2012-10-03    39.4  
##  4 2012-10-04    42.1  
##  5 2012-10-05    46.2  
##  6 2012-10-06    53.5  
##  7 2012-10-07    38.2  
##  8 2012-10-08   NaN    
##  9 2012-10-09    44.5  
## 10 2012-10-10    34.4  
## #  with 51 more rows

median_steps <- activity %>% 
    group_by(date) %>% 
    summarise(median_steps = median(steps, na.rm=TRUE)) 

# Print median number of steps per day
median_steps

## # A tibble: 61 x 2
##    date       median_steps
##    <date>            <dbl>
##  1 2012-10-01           NA
##  2 2012-10-02            0
##  3 2012-10-03            0
##  4 2012-10-04            0
##  5 2012-10-05            0
##  6 2012-10-06            0
##  7 2012-10-07            0
##  8 2012-10-08           NA
##  9 2012-10-09            0
## 10 2012-10-10            0
## #  with 51 more rows
…
Calculate and report the mean and median total number of steps taken per day.

new_daily_avg <- new_data %>% 
      group_by(date) %>% 
      summarise(daily_avg_steps =mean(steps_filld))

new_daily_avg

## # A tibble: 61 x 2
##    date       daily_avg_steps
##    <date>               <dbl>
##  1 2012-10-01           3.96 
##  2 2012-10-02           0.438
##  3 2012-10-03          39.4  
##  4 2012-10-04          42.1  
##  5 2012-10-05          46.2  
##  6 2012-10-06          53.5  
##  7 2012-10-07          38.2  
##  8 2012-10-08           3.96 
##  9 2012-10-09          44.5  
## 10 2012-10-10          34.4  
## #  with 51 more rows

new_daily_median <- new_data %>% 
      group_by(date) %>% 
      summarise(daily_mdn_steps = median(steps_filld))

new_daily_median

## # A tibble: 61 x 2
##    date       daily_mdn_steps
##    <date>               <dbl>
##  1 2012-10-01               0
##  2 2012-10-02               0
##  3 2012-10-03               0
##  4 2012-10-04               0
##  5 2012-10-05               0
##  6 2012-10-06               0
##  7 2012-10-07               0
##  8 2012-10-08               0
##  9 2012-10-09               0
## 10 2012-10-10               0
## #  with 51 more rows
…
